%YAML 1.1
%TAG !u! tag:unity3d.com,2011:
--- !u!1 &1254969024778041369
GameObject:
  m_ObjectHideFlags: 0
  m_CorrespondingSourceObject: {fileID: 0}
  m_PrefabInstance: {fileID: 0}
  m_PrefabAsset: {fileID: 0}
  serializedVersion: 6
  m_Component:
  - component: {fileID: 1252424353874074833}
  - component: {fileID: 1231978215962860849}
  - component: {fileID: 1242410267751775709}
  - component: {fileID: 1256357759124277781}
  - component: {fileID: 1256357759124277780}
  - component: {fileID: 1672443118734096}
  - component: {fileID: 1672443118734095}
  - component: {fileID: 785340223821834805}
  m_Layer: 0
  m_Name: PlayerPre
  m_TagString: Untagged
  m_Icon: {fileID: 0}
  m_NavMeshLayer: 0
  m_StaticEditorFlags: 0
  m_IsActive: 1
--- !u!4 &1252424353874074833
Transform:
  m_ObjectHideFlags: 0
  m_CorrespondingSourceObject: {fileID: 0}
  m_PrefabInstance: {fileID: 0}
  m_PrefabAsset: {fileID: 0}
  m_GameObject: {fileID: 1254969024778041369}
  m_LocalRotation: {x: 0, y: 0, z: 0, w: 1}
  m_LocalPosition: {x: -0, y: 12, z: 0}
  m_LocalScale: {x: 2, y: 2, z: 2}
  m_Children:
  - {fileID: 1256357760192908862}
  - {fileID: 1256357759050709854}
  m_Father: {fileID: 0}
  m_RootOrder: 0
  m_LocalEulerAnglesHint: {x: 0, y: 0, z: 0}
--- !u!33 &1231978215962860849
MeshFilter:
  m_ObjectHideFlags: 0
  m_CorrespondingSourceObject: {fileID: 0}
  m_PrefabInstance: {fileID: 0}
  m_PrefabAsset: {fileID: 0}
  m_GameObject: {fileID: 1254969024778041369}
  m_Mesh: {fileID: 4300000, guid: 2b1600b8b48e3ac4c87e5d81a4153ab7, type: 3}
--- !u!23 &1242410267751775709
MeshRenderer:
  m_ObjectHideFlags: 0
  m_CorrespondingSourceObject: {fileID: 0}
  m_PrefabInstance: {fileID: 0}
  m_PrefabAsset: {fileID: 0}
  m_GameObject: {fileID: 1254969024778041369}
  m_Enabled: 1
  m_CastShadows: 1
  m_ReceiveShadows: 1
  m_DynamicOccludee: 1
  m_MotionVectors: 1
  m_LightProbeUsage: 1
  m_ReflectionProbeUsage: 1
  m_RenderingLayerMask: 1
  m_RendererPriority: 0
  m_Materials:
  - {fileID: 2100000, guid: 41680dad0f0243748b4e228f49a2e3c4, type: 2}
  m_StaticBatchInfo:
    firstSubMesh: 0
    subMeshCount: 0
  m_StaticBatchRoot: {fileID: 0}
  m_ProbeAnchor: {fileID: 0}
  m_LightProbeVolumeOverride: {fileID: 0}
  m_ScaleInLightmap: 1
  m_PreserveUVs: 0
  m_IgnoreNormalsForChartDetection: 0
  m_ImportantGI: 0
  m_StitchLightmapSeams: 0
  m_SelectedEditorRenderState: 3
  m_MinimumChartSize: 4
  m_AutoUVMaxDistance: 0.5
  m_AutoUVMaxAngle: 89
  m_LightmapParameters: {fileID: 0}
  m_SortingLayerID: 0
  m_SortingLayer: 0
  m_SortingOrder: 0
--- !u!54 &1256357759124277781
Rigidbody:
  m_ObjectHideFlags: 0
  m_CorrespondingSourceObject: {fileID: 0}
  m_PrefabInstance: {fileID: 0}
  m_PrefabAsset: {fileID: 0}
  m_GameObject: {fileID: 1254969024778041369}
  serializedVersion: 2
  m_Mass: 15
  m_Drag: 0
  m_AngularDrag: 0.05
  m_UseGravity: 1
  m_IsKinematic: 0
  m_Interpolate: 0
  m_Constraints: 90
  m_CollisionDetection: 0
--- !u!114 &1256357759124277780
MonoBehaviour:
  m_ObjectHideFlags: 0
  m_CorrespondingSourceObject: {fileID: 0}
  m_PrefabInstance: {fileID: 0}
  m_PrefabAsset: {fileID: 0}
  m_GameObject: {fileID: 1254969024778041369}
  m_Enabled: 1
  m_EditorHideFlags: 0
  m_Script: {fileID: 11500000, guid: c3da77984db434cf7a7209211eb746ea, type: 3}
  m_Name: 
  m_EditorClassIdentifier: 
  gameOver: 0
  floatForce: 500
  isLowEnough: 1
  gravityModifier: 1.5
  explosionParticle: {fileID: 1256357759036533282}
  celebrationParticle: {fileID: 1256357760177777610}
  moneySound: {fileID: 8300000, guid: af9f934eb4288464eb120a5857921cc3, type: 3}
  explodeSound: {fileID: 8300000, guid: 774ebc5c074ce4695b7cc310fbd44087, type: 3}
--- !u!65 &1672443118734096
BoxCollider:
  m_ObjectHideFlags: 0
  m_CorrespondingSourceObject: {fileID: 0}
  m_PrefabInstance: {fileID: 0}
  m_PrefabAsset: {fileID: 0}
  m_GameObject: {fileID: 1254969024778041369}
  m_Material: {fileID: 0}
  m_IsTrigger: 0
  m_Enabled: 1
  serializedVersion: 2
  m_Size: {x: 0.46895948, y: 0.6567495, z: 0.49309254}
  m_Center: {x: 0, y: 0.5957593, z: -0.000000029802322}
--- !u!114 &1672443118734095
MonoBehaviour:
  m_ObjectHideFlags: 0
  m_CorrespondingSourceObject: {fileID: 0}
  m_PrefabInstance: {fileID: 0}
  m_PrefabAsset: {fileID: 0}
  m_GameObject: {fileID: 1254969024778041369}
  m_Enabled: 1
  m_EditorHideFlags: 0
  m_Script: {fileID: 11500000, guid: 29e6556bfaaf8448faa6f3f29def86ef, type: 3}
  m_Name: 
  m_EditorClassIdentifier: 
  spinSpeed: 50
--- !u!82 &785340223821834805
AudioSource:
  m_ObjectHideFlags: 0
  m_CorrespondingSourceObject: {fileID: 0}
  m_PrefabInstance: {fileID: 0}
  m_PrefabAsset: {fileID: 0}
  m_GameObject: {fileID: 1254969024778041369}
  m_Enabled: 1
  serializedVersion: 4
  OutputAudioMixerGroup: {fileID: 0}
  m_audioClip: {fileID: 0}
  m_PlayOnAwake: 1
  m_Volume: 1
  m_Pitch: 1
  Loop: 0
  Mute: 0
  Spatialize: 0
  SpatializePostEffects: 0
  Priority: 128
  DopplerLevel: 1
  MinDistance: 1
  MaxDistance: 500
  Pan2D: 0
  rolloffMode: 0
  BypassEffects: 0
  BypassListenerEffects: 0
  BypassReverbZones: 0
  rolloffCustomCurve:
    serializedVersion: 2
    m_Curve:
    - serializedVersion: 3
      time: 0
      value: 1
      inSlope: 0
      outSlope: 0
      tangentMode: 0
      weightedMode: 0
      inWeight: 0.33333334
      outWeight: 0.33333334
    - serializedVersion: 3
      time: 1
      value: 0
      inSlope: 0
      outSlope: 0
      tangentMode: 0
      weightedMode: 0
      inWeight: 0.33333334
      outWeight: 0.33333334
    m_PreInfinity: 2
    m_PostInfinity: 2
    m_RotationOrder: 4
  panLevelCustomCurve:
    serializedVersion: 2
    m_Curve:
    - serializedVersion: 3
      time: 0
      value: 0
      inSlope: 0
      outSlope: 0
      tangentMode: 0
      weightedMode: 0
      inWeight: 0.33333334
      outWeight: 0.33333334
    m_PreInfinity: 2
    m_PostInfinity: 2
    m_RotationOrder: 4
  spreadCustomCurve:
    serializedVersion: 2
    m_Curve:
    - serializedVersion: 3
      time: 0
      value: 0
      inSlope: 0
      outSlope: 0
      tangentMode: 0
      weightedMode: 0
      inWeight: 0.33333334
      outWeight: 0.33333334
    m_PreInfinity: 2
    m_PostInfinity: 2
    m_RotationOrder: 4
  reverbZoneMixCustomCurve:
    serializedVersion: 2
    m_Curve:
    - serializedVersion: 3
      time: 0
      value: 1
      inSlope: 0
      outSlope: 0
      tangentMode: 0
      weightedMode: 0
      inWeight: 0.33333334
      outWeight: 0.33333334
    m_PreInfinity: 2
    m_PostInfinity: 2
    m_RotationOrder: 4
--- !u!1001 &1256357759050569762
PrefabInstance:
  m_ObjectHideFlags: 0
  serializedVersion: 2
  m_Modification:
    m_TransformParent: {fileID: 1252424353874074833}
    m_Modifications:
    - target: {fileID: 191186, guid: 079954accd64b32419ec069129c81273, type: 3}
      propertyPath: m_Name
      value: FX_Explosion
      objectReference: {fileID: 0}
    - target: {fileID: 402300, guid: 079954accd64b32419ec069129c81273, type: 3}
      propertyPath: m_LocalPosition.x
      value: 0
      objectReference: {fileID: 0}
    - target: {fileID: 402300, guid: 079954accd64b32419ec069129c81273, type: 3}
      propertyPath: m_LocalPosition.y
      value: 0.5
      objectReference: {fileID: 0}
    - target: {fileID: 402300, guid: 079954accd64b32419ec069129c81273, type: 3}
      propertyPath: m_LocalPosition.z
      value: 0
      objectReference: {fileID: 0}
    - target: {fileID: 402300, guid: 079954accd64b32419ec069129c81273, type: 3}
      propertyPath: m_LocalRotation.x
      value: -0.7008359
      objectReference: {fileID: 0}
    - target: {fileID: 402300, guid: 079954accd64b32419ec069129c81273, type: 3}
      propertyPath: m_LocalRotation.y
      value: -0
      objectReference: {fileID: 0}
    - target: {fileID: 402300, guid: 079954accd64b32419ec069129c81273, type: 3}
      propertyPath: m_LocalRotation.z
      value: -0
      objectReference: {fileID: 0}
    - target: {fileID: 402300, guid: 079954accd64b32419ec069129c81273, type: 3}
      propertyPath: m_LocalRotation.w
      value: 0.7133226
      objectReference: {fileID: 0}
    - target: {fileID: 402300, guid: 079954accd64b32419ec069129c81273, type: 3}
      propertyPath: m_RootOrder
      value: 1
      objectReference: {fileID: 0}
    - target: {fileID: 402300, guid: 079954accd64b32419ec069129c81273, type: 3}
      propertyPath: m_LocalEulerAnglesHint.x
      value: 0
      objectReference: {fileID: 0}
    - target: {fileID: 402300, guid: 079954accd64b32419ec069129c81273, type: 3}
      propertyPath: m_LocalEulerAnglesHint.y
      value: 0
      objectReference: {fileID: 0}
    - target: {fileID: 402300, guid: 079954accd64b32419ec069129c81273, type: 3}
      propertyPath: m_LocalEulerAnglesHint.z
      value: 0
      objectReference: {fileID: 0}
    - target: {fileID: 19821056, guid: 079954accd64b32419ec069129c81273, type: 3}
      propertyPath: lengthInSec
      value: 0.05
      objectReference: {fileID: 0}
    - target: {fileID: 19821056, guid: 079954accd64b32419ec069129c81273, type: 3}
      propertyPath: playOnAwake
      value: 0
      objectReference: {fileID: 0}
    - target: {fileID: 19821056, guid: 079954accd64b32419ec069129c81273, type: 3}
      propertyPath: startDelay.scalar
      value: 0
      objectReference: {fileID: 0}
    - target: {fileID: 19821056, guid: 079954accd64b32419ec069129c81273, type: 3}
      propertyPath: InitialModule.startSizeY.minMaxState
      value: 3
      objectReference: {fileID: 0}
    - target: {fileID: 19821056, guid: 079954accd64b32419ec069129c81273, type: 3}
      propertyPath: InitialModule.startSizeZ.minMaxState
      value: 3
      objectReference: {fileID: 0}
    - target: {fileID: 19821056, guid: 079954accd64b32419ec069129c81273, type: 3}
      propertyPath: InitialModule.maxNumParticles
      value: 0
      objectReference: {fileID: 0}
    - target: {fileID: 19810594, guid: 079954accd64b32419ec069129c81273, type: 3}
      propertyPath: playOnAwake
      value: 0
      objectReference: {fileID: 0}
    - target: {fileID: 19810594, guid: 079954accd64b32419ec069129c81273, type: 3}
      propertyPath: startDelay.scalar
      value: 0.2
      objectReference: {fileID: 0}
    - target: {fileID: 19810594, guid: 079954accd64b32419ec069129c81273, type: 3}
      propertyPath: InitialModule.startSizeY.minMaxState
      value: 3
      objectReference: {fileID: 0}
    - target: {fileID: 19810594, guid: 079954accd64b32419ec069129c81273, type: 3}
      propertyPath: InitialModule.startSizeZ.minMaxState
      value: 3
      objectReference: {fileID: 0}
    - target: {fileID: 19877906, guid: 079954accd64b32419ec069129c81273, type: 3}
      propertyPath: playOnAwake
      value: 0
      objectReference: {fileID: 0}
    m_RemovedComponents: []
  m_SourcePrefab: {fileID: 100100000, guid: 079954accd64b32419ec069129c81273, type: 3}
--- !u!4 &1256357759050709854 stripped
Transform:
  m_CorrespondingSourceObject: {fileID: 402300, guid: 079954accd64b32419ec069129c81273,
    type: 3}
  m_PrefabInstance: {fileID: 1256357759050569762}
  m_PrefabAsset: {fileID: 0}
--- !u!198 &1256357759036533282 stripped
ParticleSystem:
  m_CorrespondingSourceObject: {fileID: 19821056, guid: 079954accd64b32419ec069129c81273,
    type: 3}
  m_PrefabInstance: {fileID: 1256357759050569762}
  m_PrefabAsset: {fileID: 0}
--- !u!1001 &1256357760193046478
PrefabInstance:
  m_ObjectHideFlags: 0
  serializedVersion: 2
  m_Modification:
    m_TransformParent: {fileID: 1252424353874074833}
    m_Modifications:
    - target: {fileID: 180128, guid: 6586ff0f14125534cae2f5d8f04b7871, type: 3}
      propertyPath: m_Name
      value: FX_Fireworks_Yellow_Small
      objectReference: {fileID: 0}
    - target: {fileID: 403952, guid: 6586ff0f14125534cae2f5d8f04b7871, type: 3}
      propertyPath: m_LocalPosition.x
      value: 0
      objectReference: {fileID: 0}
    - target: {fileID: 403952, guid: 6586ff0f14125534cae2f5d8f04b7871, type: 3}
      propertyPath: m_LocalPosition.y
      value: 0.5
      objectReference: {fileID: 0}
    - target: {fileID: 403952, guid: 6586ff0f14125534cae2f5d8f04b7871, type: 3}
      propertyPath: m_LocalPosition.z
      value: 0
      objectReference: {fileID: 0}
    - target: {fileID: 403952, guid: 6586ff0f14125534cae2f5d8f04b7871, type: 3}
      propertyPath: m_LocalRotation.x
      value: -0
      objectReference: {fileID: 0}
    - target: {fileID: 403952, guid: 6586ff0f14125534cae2f5d8f04b7871, type: 3}
      propertyPath: m_LocalRotation.y
      value: 0
      objectReference: {fileID: 0}
    - target: {fileID: 403952, guid: 6586ff0f14125534cae2f5d8f04b7871, type: 3}
      propertyPath: m_LocalRotation.z
      value: -0
      objectReference: {fileID: 0}
    - target: {fileID: 403952, guid: 6586ff0f14125534cae2f5d8f04b7871, type: 3}
      propertyPath: m_LocalRotation.w
      value: 1
      objectReference: {fileID: 0}
    - target: {fileID: 403952, guid: 6586ff0f14125534cae2f5d8f04b7871, type: 3}
      propertyPath: m_RootOrder
      value: 0
      objectReference: {fileID: 0}
    - target: {fileID: 403952, guid: 6586ff0f14125534cae2f5d8f04b7871, type: 3}
      propertyPath: m_LocalEulerAnglesHint.x
      value: 0
      objectReference: {fileID: 0}
    - target: {fileID: 403952, guid: 6586ff0f14125534cae2f5d8f04b7871, type: 3}
      propertyPath: m_LocalEulerAnglesHint.y
      value: 0
      objectReference: {fileID: 0}
    - target: {fileID: 403952, guid: 6586ff0f14125534cae2f5d8f04b7871, type: 3}
      propertyPath: m_LocalEulerAnglesHint.z
      value: 0
      objectReference: {fileID: 0}
    - target: {fileID: 403952, guid: 6586ff0f14125534cae2f5d8f04b7871, type: 3}
      propertyPath: m_LocalScale.x
      value: 0.5
      objectReference: {fileID: 0}
    - target: {fileID: 403952, guid: 6586ff0f14125534cae2f5d8f04b7871, type: 3}
      propertyPath: m_LocalScale.y
      value: 0.5
      objectReference: {fileID: 0}
    - target: {fileID: 403952, guid: 6586ff0f14125534cae2f5d8f04b7871, type: 3}
      propertyPath: m_LocalScale.z
      value: 0.5
      objectReference: {fileID: 0}
    - target: {fileID: 19860484, guid: 6586ff0f14125534cae2f5d8f04b7871, type: 3}
      propertyPath: playOnAwake
      value: 0
      objectReference: {fileID: 0}
    - target: {fileID: 19860484, guid: 6586ff0f14125534cae2f5d8f04b7871, type: 3}
      propertyPath: startDelay.scalar
      value: 0
      objectReference: {fileID: 0}
    m_RemovedComponents: []
  m_SourcePrefab: {fileID: 100100000, guid: 6586ff0f14125534cae2f5d8f04b7871, type: 3}
--- !u!4 &1256357760192908862 stripped
Transform:
  m_CorrespondingSourceObject: {fileID: 403952, guid: 6586ff0f14125534cae2f5d8f04b7871,
    type: 3}
  m_PrefabInstance: {fileID: 1256357760193046478}
  m_PrefabAsset: {fileID: 0}
--- !u!198 &1256357760177777610 stripped
ParticleSystem:
  m_CorrespondingSourceObject: {fileID: 19860484, guid: 6586ff0f14125534cae2f5d8f04b7871,
    type: 3}
  m_PrefabInstance: {fileID: 1256357760193046478}
  m_PrefabAsset: {fileID: 0}
