{
    "transportUnitList": [
      {
        "TeamColor": {
          "r": 0,
          "g": 0,
          "b": 0,
          "a": 1
        },
        "Speed": 3,
        "MaxAmountTransported": 1
      },
      {
        "TeamColor": {
          "r": 0,
          "g": 0,
          "b": 0,
          "a": 1
        },
        "Speed": 4,
        "MaxAmountTransported": 2
      },
      {
        "TeamColor": {
          "r": 0,
          "g": 0,
          "b": 0,
          "a": 1
        },
        "Speed": 4,
        "MaxAmountTransported": 2
      }
    ]
  }