%YAML 1.1
%TAG !u! tag:unity3d.com,2011:
--- !u!1 &8746380374806596188
GameObject:
  m_ObjectHideFlags: 0
  m_CorrespondingSourceObject: {fileID: 0}
  m_PrefabInstance: {fileID: 0}
  m_PrefabAsset: {fileID: 0}
  serializedVersion: 6
  m_Component:
  - component: {fileID: 8746380374806596190}
  - component: {fileID: 8746380374806596191}
  m_Layer: 0
  m_Name: Game Manager
  m_TagString: Untagged
  m_Icon: {fileID: 0}
  m_NavMeshLayer: 0
  m_StaticEditorFlags: 0
  m_IsActive: 1
--- !u!4 &8746380374806596190
Transform:
  m_ObjectHideFlags: 0
  m_CorrespondingSourceObject: {fileID: 0}
  m_PrefabInstance: {fileID: 0}
  m_PrefabAsset: {fileID: 0}
  m_GameObject: {fileID: 8746380374806596188}
  m_LocalRotation: {x: 0, y: 0, z: 0, w: 1}
  m_LocalPosition: {x: 0, y: 0, z: 0}
  m_LocalScale: {x: 1, y: 1, z: 1}
  m_Children: []
  m_Father: {fileID: 0}
  m_RootOrder: 0
  m_LocalEulerAnglesHint: {x: 0, y: 0, z: 0}
--- !u!114 &8746380374806596191
MonoBehaviour:
  m_ObjectHideFlags: 0
  m_CorrespondingSourceObject: {fileID: 0}
  m_PrefabInstance: {fileID: 0}
  m_PrefabAsset: {fileID: 0}
  m_GameObject: {fileID: 8746380374806596188}
  m_Enabled: 1
  m_EditorHideFlags: 0
  m_Script: {fileID: 11500000, guid: eb7bb63724be146409d95a8ef841379c, type: 3}
  m_Name: 
  m_EditorClassIdentifier: 
  panelUI: {fileID: 0}
  targets:
  - {fileID: 6157845927519538405, guid: 9464dbf9d2ba7eb429cbfd058044b8b7, type: 3}
  - {fileID: 1714827023223380600, guid: 1736cb5bb59d65e41b021d29b95cf9e4, type: 3}
  - {fileID: 5797467960349614199, guid: 6546b312248055f4599456c5a714fcfd, type: 3}
  - {fileID: 8688441438673639617, guid: 831a96d19ec52874b8089ec06722d7d4, type: 3}
  isGameActive: 0
